Structural topic modeling with spice girl lyrics
…
Note. Unfortunately, it does not work in my case 

tidy_lyrics <-  lyrics %>%
  mutate(song_name = str_replace_all(song_name, "\x92", "")) %>%
  unnest_tokens(word, line) %>%
  anti_join(get_stopwords())

## Joining, by = "word"

Initial EDA: What are the most common words in these songs after removing stop words?

tidy_lyrics %>%
  count(word, sort = TRUE)

## # A tibble: 979 x 2
##    word       n
##    <chr>  <int>
##  1 get      153
##  2 love     137
##  3 know     124
##  4 time     106
##  5 wanna    102
##  6 never    101
##  7 oh        88
##  8 yeah      88
##  9 la        85
## 10 got       82
## 11 make      78
## 12 give      75
## 13 just      72
## 14 come      64
## 15 gotta     64
## 16 dance     61
## 17 way       61
## 18 right     58
## 19 feel      57
## 20 baby      54
## 21 now       52
## 22 night     51
## 23 can       49
## 24 want      49
## 25 holler    48
## 26 tell      47
## 27 hey       46
## 28 back      45
## 29 cause     44
## 30 good      44
## # ... with 949 more rows
…
Interpretation: Most salient words per topic

Extracting Word probabilities

Word probabilities are a first way to get a glimpse about the content or meaning of a topic in the similar way as indicators of a principal component model and component loadings are a way to interpret the component.

(word_topics <- tidy(topic_model, matrix = "beta") )

## # A tibble: 3,916 x 3
##    topic term        beta
##    <int> <chr>      <dbl>
##  1     1 achieve 1.41e- 3
##  2     2 achieve 2.12e- 4
##  3     3 achieve 5.61e- 9
##  4     4 achieve 3.76e-15
##  5     1 baby    8.22e- 3
##  6     2 baby    1.83e- 2
##  7     3 baby    2.24e- 6
##  8     4 baby    4.32e- 3
##  9     1 back    1.87e- 2
## 10     2 back    5.99e- 4
## 11     3 back    3.80e- 3
## 12     4 back    2.25e- 3
## 13     1 become  1.64e- 6
## 14     2 become  7.39e- 4
## 15     3 become  2.14e- 3
## 16     4 become  2.38e-14
## 17     1 believe 1.10e-11
## 18     2 believe 2.61e- 3
## 19     3 believe 5.98e- 7
## 20     4 believe 5.82e- 3
## 21     1 bit     2.20e- 7
## 22     2 bit     1.19e- 3
## 23     3 bit     3.80e- 8
## 24     4 bit     2.48e-14
## 25     1 boy     2.19e- 3
## 26     2 boy     4.44e- 3
## 27     3 boy     1.81e- 3
## 28     4 boy     2.80e- 3
## 29     1 boys    1.10e- 7
## 30     2 boys    5.94e- 4
## # ... with 3,886 more rows

 Note. For the purpose of plotting the probabilties, it is important to not change the beta values (e.g., change the format). Hence, changing the format to more intuitively interpret the values should be done into a separate variable: 

word_topics %>% 
  mutate (beta_intuitively = round(beta, 5))

## # A tibble: 3,916 x 4
##    topic term        beta beta_intuitively
##    <int> <chr>      <dbl>            <dbl>
##  1     1 achieve 1.41e- 3          0.00141
##  2     2 achieve 2.12e- 4          0.00021
##  3     3 achieve 5.61e- 9          0      
##  4     4 achieve 3.76e-15          0      
##  5     1 baby    8.22e- 3          0.00822
##  6     2 baby    1.83e- 2          0.0183 
##  7     3 baby    2.24e- 6          0      
##  8     4 baby    4.32e- 3          0.00432
##  9     1 back    1.87e- 2          0.0187 
## 10     2 back    5.99e- 4          0.0006 
## 11     3 back    3.80e- 3          0.0038 
## 12     4 back    2.25e- 3          0.00225
## 13     1 become  1.64e- 6          0      
## 14     2 become  7.39e- 4          0.00074
## 15     3 become  2.14e- 3          0.00214
## 16     4 become  2.38e-14          0      
## 17     1 believe 1.10e-11          0      
## 18     2 believe 2.61e- 3          0.00261
## 19     3 believe 5.98e- 7          0      
## 20     4 believe 5.82e- 3          0.00582
## 21     1 bit     2.20e- 7          0      
## 22     2 bit     1.19e- 3          0.00119
## 23     3 bit     3.80e- 8          0      
## 24     4 bit     2.48e-14          0      
## 25     1 boy     2.19e- 3          0.00219
## 26     2 boy     4.44e- 3          0.00444
## 27     3 boy     1.81e- 3          0.00181
## 28     4 boy     2.80e- 3          0.0028 
## 29     1 boys    1.10e- 7          0      
## 30     2 boys    5.94e- 4          0.00059
## # ... with 3,886 more rows
…
 I especially like the reorder_within() function which sorts the order along beta in each plot. 

Interpretation: Song probabilities

In the same way, probabilities of words given a topic can be extracted, the same can be done with the songs (=documents). This allows to inspect those songs that belong to topic. Again, the gamma value (similar to beta) can be interpreted as a kind of factor loading or salience parameter.

Extracting song probabilities

(song_topics <- tidy(topic_model, matrix = "gamma",
                    document_names = rownames(lyrics_sparse)) )

## # A tibble: 124 x 3
##    document                        topic    gamma
##    <chr>                           <int>    <dbl>
##  1 2 Become 1                          1 0.370   
##  2 Denying                             1 0.00165 
##  3 Do It                               1 0.994   
##  4 Get Down With Me                    1 0.479   
##  5 Goodbye                             1 0.000666
##  6 Holler                              1 0.00168 
##  7 If U Can<U+FFFD>t Dance                    1 0.000879
##  8 If You Wanna Have Some Fun          1 0.954   
##  9 Last Time Lover                     1 0.997   
## 10 Let Love Lead the Way               1 0.00149 
## 11 Love Thing                          1 0.188   
## 12 Mama                                1 0.00290 
## 13 Move Over                           1 0.00103 
## 14 Naked                               1 0.00216 
## 15 Never Give Up on the Good Times     1 0.000441
## 16 Oxygen                              1 0.00187 
## 17 Right Back At Ya                    1 0.996   
## 18 Saturday Night Divas                1 0.998   
## 19 Say You<U+FFFD>ll Be There                 1 0.000978
## 20 Something Kinda Funny               1 0.00226 
## 21 Spice Up Your Life                  1 0.000302
## 22 Stop                                1 0.996   
## 23 Tell Me Why                         1 0.00255 
## 24 The Lady Is a Vamp                  1 0.00409 
## 25 Time Goes By                        1 0.00530 
## 26 Too Much                            1 0.00131 
## 27 Viva Forever                        1 0.000535
## 28 Wannabe                             1 0.997   
## 29 Wasting My Time                     1 0.00130 
## 30 Weekend Love                        1 0.0250  
## # ... with 94 more rows
…
The result shows that is there is no difference in the topics across albums.

Including predictors in the initial structual topic model

The following code adapts Julias Jane-Austen example to the spice girl case. Reminder: The focal tibble is tidy_lyrics which contains the meta data and tokenized lyrics.

Creating a separate meta data set with album name as the predictor

Note. This is an alternative (which I prefer) to adding the meta data as a pipeline within (as in the above estimateEffect example). Note the order of the song names (accoring to the order in lyric_sparse)

(covariates_spice <- tidy_lyrics %>%
  distinct(song_name, album_name) %>% 
  arrange(song_name) )

## # A tibble: 31 x 2
##    album_name song_name                      
##    <chr>      <chr>                          
##  1 Spice      2 Become 1                     
##  2 Spiceworld Denying                        
##  3 Spiceworld Do It                          
##  4 Forever    Get Down With Me               
##  5 Forever    Goodbye                        
##  6 Forever    Holler                         
##  7 Spice      If U Can<U+FFFD>t Dance               
##  8 Forever    If You Wanna Have Some Fun     
##  9 Spice      Last Time Lover                
## 10 Forever    Let Love Lead the Way          
## 11 Spice      Love Thing                     
## 12 Spice      Mama                           
## 13 Spiceworld Move Over                      
## 14 Spice      Naked                          
## 15 Spiceworld Never Give Up on the Good Times
## 16 Forever    Oxygen                         
## 17 Forever    Right Back At Ya               
## 18 Spiceworld Saturday Night Divas           
## 19 Spice      Say You<U+FFFD>ll Be There            
## 20 Spice      Something Kinda Funny          
## 21 Spiceworld Spice Up Your Life             
## 22 Spiceworld Stop                           
## 23 Forever    Tell Me Why                    
## 24 Spiceworld The Lady Is a Vamp             
## 25 Forever    Time Goes By                   
## 26 Spiceworld Too Much                       
## 27 Spiceworld Viva Forever                   
## 28 Spice      Wannabe                        
## 29 Forever    Wasting My Time                
## 30 Forever    Weekend Love                   
## # ... with 1 more row
…
Which songs belong to each topic?

Note that a song has a probability to representing each topic. Hence, there must be some threshold. I choose .25

td_gamma %>% 
  filter(gamma > .25) %>%
  arrange(topic, -gamma) %>% 
  mutate(gamma = round(gamma, 3)) 

## # A tibble: 34 x 3
##    document                        topic gamma
##    <chr>                           <int> <dbl>
##  1 Saturday Night Divas                1 0.998
##  2 Last Time Lover                     1 0.997
##  3 Wannabe                             1 0.997
##  4 Stop                                1 0.996
##  5 Right Back At Ya                    1 0.996
##  6 Do It                               1 0.994
##  7 If You Wanna Have Some Fun          1 0.954
##  8 Get Down With Me                    1 0.479
##  9 2 Become 1                          1 0.37 
## 10 If U Can<U+FFFD>t Dance                    2 0.997
## 11 Move Over                           2 0.997
## 12 Naked                               2 0.996
## 13 Denying                             2 0.995
## 14 The Lady Is a Vamp                  2 0.993
## 15 Let Love Lead the Way               2 0.966
## 16 Time Goes By                        2 0.886
## 17 Love Thing                          2 0.79 
## 18 2 Become 1                          2 0.407
## 19 Who Do You Think You Are            3 0.997
## 20 Holler                              3 0.996
## 21 Something Kinda Funny               3 0.995
## 22 Mama                                3 0.99 
## 23 Weekend Love                        3 0.69 
## 24 Get Down With Me                    3 0.402
## 25 Spice Up Your Life                  4 0.998
## 26 Never Give Up on the Good Times     4 0.998
## 27 Viva Forever                        4 0.997
## 28 Goodbye                             4 0.996
## 29 Too Much                            4 0.994
## 30 Say You<U+FFFD>ll Be There                 4 0.993
## # ... with 4 more rows
…
